﻿subjects,objects,predictes
http://dbpedia.org/resource/Cristiano_Ronaldo,كريستيانو رونالدو دوس سانتوس أفييرو(بالبرتغالية: Cristiano Ronaldo dos Santos Aveiro)، (مواليد 5 فبراير 1985)، المعروف بـ كريستيانو رونالدو. هو لاعب كرة قدم برتغالي يلعب في مركز الجناح الأيسر أو كمهاجم بنادي ريال مدريد الإسباني الذي يشارك في الدوري الإسباني لكرة القدم وهو حالياً قائد منتخب البرتغال لكرة القدم. يعتبر كريستيانو رونالدو ثالث أغلى لاعب في تاريخ كرة القدم بعد انتقاله من نادي مانشستر يونايتد الإنجليزي إلى نادي ريال مدريد الإسباني في صفقة انتقال بقيمة 80 مليون £ (94 مليون €/131.6 مليون $). وبالإضافة إلى ذلك فهو يمتلك عقد تاريخي مع نادي ريال مدريد والذي يدفع له 18 مليون € (24.4 مليون $) سنوياً. مما يجعله واحداً من لاعبي كرة القدم الأعلى أجراً في العالم. وتبلغ قيمة فسخ عقد اللاعب 1 مليار € (1.355 مليار $) بدأ رونالدو مسيرته كلاعب في نادي شباب أندورينها، حيث لعب لموسمين، قبل أن ينتقل إلى نادي ناسيونال ماديرا في عام 1997، خطا كريستيانو رونالدو خطوة كبيرة بانتقاله إلى نادي سبورتينغ لشبونة أحد عمالقة البرتغال واشتعلت موهبة رونالدو فيه ما أدى إلى اهتمام مدرب نادي مانشستر يونايتد الإنجليزي السير أليكس فيرغسون، والذي جلبه بمبلغ 12.24 مليون £ (15 مليون € - 20.3 مليون $) سنة 2003. في الموسم التالي، فاز رونالدو بأول ألقابه مع النادي وهو كأس الاتحاد الإنجليزي لكرة القدم. ولعب أيضا مع المنتخب البرتغالي أول بطولة أوروبية وذلك في بطولة كأس الأمم الأوروبية 2004 وسجل أول أهدافه في المباراة الافتتحاية ضد المنتخب اليوناني. وساعد منتخبه للوصول إلى الدور النهائي، وأختير ضمن تشكيلة نجوم كأس الأمم الأوروبية لهذه المسابقة. أصبح رونالدو أول لاعب يجمع بين الجوائز الأربعة لكل من جمعية لاعبي كرة القدم المحترفين (PFA) وجمعية كتاب كرة القدم (FWA)، وذلك سنة 2007. سنة 2008، فاز رونالدو بلقب دوري أبطال أوروبا مع نادي مانشستر يونايتد، واختير أفضل مهاجم وكذلك لاعب البطولة وأيضا هداف البطولة بـ8 أهداف، فضلا عن فوزه بالحذاء الذهبي، وتم ذكر اسمه في تشكيلة الفريق المثالي لفيفا فيفبرو التي يتم اختيارها من قبل النقابة الدولية للاعبي كرة القدم المحترفين (FIFPro)، وفاز أيضا بجائزة أفضل اللاعب فالعالم المقدمة من مجلة وورد سوكر (World Soccer)، و بجائزة أونزي الذهبية. بالإضافة إلى جائزة أفضل لاعب كرة قدم في العالم، وكذلك أصبح أول لاعب في مانشستر يونايتد يفوز بجائزة الكرة الذهبية منذ 40 عاما بعد آخر تتويج لـجورج بست سنة 1968 ليصبح ثالث لاعب برتغالي يفوز بالجائزة. رونالدو حمل التميز كونه أول لاعب فاز بجائزة بوشكاش وذلك بعد تسجيله هدفا رائعا من على بعد 40 ياردة ضد نادي بورتو البرتغالي في مباراة ربع نهائي دوري أبطال أوروبا. وكما توج كريستيانو رونالدو بجائزة الكرة الذهبية قبل دمجها في 2008،، توج كريستيانو بنسخة كرة الفيفا الذهبية الجديدة لعام 2013. ، كما توج رونالدو بكرة الفيفا الذهبية لعام 2014 كأفضل لاعب في العالم للمرة الثانية على التوالي . بعد انتقاله سنة 2009 إلى نادي ريال مدريد، في الموسم الثاني، أصبح رونالدو أفضل هداف في موسم واحد في تاريخ ريال مدريد بعد تسجيله 53 هدف، متجاوزا حصيلة الهداف السابق للنادي المجري فيرينك بوشكاش بـ49 هدف. وحطم رونالدو كذلك الرقم القياسي لعدد الأهداف المسجلة في موسم واحد في الدوري الإسباني برصيد 40 هدف متجاوزاً كل من لاعب أتلتيك بيلباو السابق تلمو ثارّا ولاعب ريال مدريد السابق هوغو سانشيز (38 هدف) عامي 1951 و1990 على التوالي. في 24 مارس 2012، أصبح كريستيانو رونالدو أسرع لاعب يسجل 100 هدف في الدوري الإسباني بعد تسجيله هدفين أمام نادي ريال سوسيداد. رونالدو حطم رسمياً رقمه السابق بـ40 هدف في موسم واحد ليصبح أول لاعب في تاريخ كرة القدم يسجل 40 هدف مرتين متتاليتين في البطولات الأوروبية الكبرى. كما حطم رونالدو الرقم القياسي المسجل باسم المجري فيرينك بوشكاش في صدارة الهدافين على مر تاريخ ريال مدريد عند المباراة رقم 100 بعد تسجيله هدفا في مرمى نادي غرناطة. في 24 مايو 2014 فاز كريستيانو بنهائي دوري أبطال أوروبا 2014 للمرة الثانية في تاريخه محققا رقما قياسيا في البطولة وهو تسجيل 17 هدف في موسم واحد. في كأس العالم لكرة القدم 2014 سجل كريستيانو رونالدو هدفه ال50 مع منتخب البرتغال وهو مواصلة للرقم القياسي الذي حطمه بالهدف رقم 47. وفي العاشر من يوليو 2016 رفع رونالدو أول لقب مع منتخب بلاده بفوزه بكأس أمم أوروبا على حساب المنتخب الفرنسي المستضيف بهدف لصفر في الأشواط الإضافية. رونالدو هو إسم فيلم وثائقي حول كريستيانو يلخص حياته ويمثل فيه هو وعائلته وأقربائه، وصدر سنة 2015 وكان كريستيانو عند صدور الفيلم لا يزال يلعب.,http://dbpedia.org/ontology/abstract
http://dbpedia.org/resource/Cristiano_Ronaldo,كريستيانو رونالدو دوس سانتوس أفييرو(بالبرتغالية: Cristiano Ronaldo dos Santos Aveiro)، (مواليد 5 فبراير 1985)، المعروف بـ كريستيانو رونالدو. هو لاعب كرة قدم برتغالي يلعب في مركز الجناح الأيسر أو كمهاجم بنادي ريال مدريد الإسباني الذي يشارك في الدوري الإسباني لكرة القدم وهو حالياً قائد منتخب البرتغال لكرة القدم. في 24 مايو 2014 فاز كريستيانو بنهائي دوري أبطال أوروبا 2014 للمرة الثانية في تاريخه محققا رقما قياسيا في البطولة وهو تسجيل 17 هدف في موسم واحد. في كأس العالم لكرة القدم 2014 سجل كريستيانو رونالدو هدفه ال50 مع منتخب البرتغال وهو مواصلة للرقم القياسي الذي حطمه بالهدف رقم 47.,http://www.w3.org/2000/01/rdf-schema#comment
http://dbpedia.org/resource/Cristiano_Ronaldo,كريستيانو رونالدو,http://www.w3.org/2000/01/rdf-schema#label
